info face="5Identification-Mono" size=64 bold=0 italic=0 charset="" unicode=0 stretchH=100 smooth=1 aa=1 padding=0,0,0,0 spacing=0,0
common lineHeight=112 base=96 scaleW=512 scaleH=512 pages=1 packed=0
page id=0 file="5Identification-Mono.png"
chars count=45
char id=32   x=0     y=0     width=0     height=0     xoffset=0     yoffset=96    xadvance=68     page=0  chnl=0 
char id=36   x=0     y=0     width=65     height=81     xoffset=0     yoffset=16    xadvance=68     page=0  chnl=0 
char id=64   x=65     y=0     width=65     height=81     xoffset=0     yoffset=16    xadvance=68     page=0  chnl=0 
char id=63   x=130     y=0     width=65     height=81     xoffset=0     yoffset=16    xadvance=68     page=0  chnl=0 
char id=33   x=195     y=0     width=17     height=81     xoffset=24     yoffset=16    xadvance=68     page=0  chnl=0 
char id=48   x=212     y=0     width=65     height=81     xoffset=0     yoffset=16    xadvance=68     page=0  chnl=0 
char id=57   x=277     y=0     width=65     height=81     xoffset=0     yoffset=16    xadvance=68     page=0  chnl=0 
char id=56   x=342     y=0     width=65     height=81     xoffset=0     yoffset=16    xadvance=68     page=0  chnl=0 
char id=55   x=407     y=0     width=65     height=81     xoffset=0     yoffset=16    xadvance=68     page=0  chnl=0 
char id=54   x=0     y=81     width=65     height=81     xoffset=0     yoffset=16    xadvance=68     page=0  chnl=0 
char id=53   x=65     y=81     width=65     height=81     xoffset=0     yoffset=16    xadvance=68     page=0  chnl=0 
char id=52   x=130     y=81     width=65     height=81     xoffset=0     yoffset=16    xadvance=68     page=0  chnl=0 
char id=51   x=195     y=81     width=65     height=81     xoffset=0     yoffset=16    xadvance=68     page=0  chnl=0 
char id=50   x=260     y=81     width=65     height=81     xoffset=0     yoffset=16    xadvance=68     page=0  chnl=0 
char id=49   x=325     y=81     width=65     height=81     xoffset=0     yoffset=16    xadvance=68     page=0  chnl=0 
char id=122   x=390     y=81     width=65     height=81     xoffset=0     yoffset=16    xadvance=68     page=0  chnl=0 
char id=121   x=0     y=162     width=65     height=81     xoffset=0     yoffset=16    xadvance=68     page=0  chnl=0 
char id=120   x=65     y=162     width=65     height=81     xoffset=0     yoffset=16    xadvance=68     page=0  chnl=0 
char id=119   x=130     y=162     width=65     height=81     xoffset=0     yoffset=16    xadvance=68     page=0  chnl=0 
char id=118   x=195     y=162     width=65     height=81     xoffset=0     yoffset=16    xadvance=68     page=0  chnl=0 
char id=117   x=260     y=162     width=65     height=81     xoffset=0     yoffset=16    xadvance=68     page=0  chnl=0 
char id=116   x=325     y=162     width=65     height=81     xoffset=0     yoffset=16    xadvance=68     page=0  chnl=0 
char id=115   x=390     y=162     width=65     height=81     xoffset=0     yoffset=16    xadvance=68     page=0  chnl=0 
char id=114   x=0     y=243     width=65     height=81     xoffset=0     yoffset=16    xadvance=68     page=0  chnl=0 
char id=113   x=65     y=243     width=65     height=81     xoffset=0     yoffset=16    xadvance=68     page=0  chnl=0 
char id=112   x=130     y=243     width=65     height=81     xoffset=0     yoffset=16    xadvance=68     page=0  chnl=0 
char id=111   x=195     y=243     width=65     height=81     xoffset=0     yoffset=16    xadvance=68     page=0  chnl=0 
char id=110   x=260     y=243     width=65     height=81     xoffset=0     yoffset=16    xadvance=68     page=0  chnl=0 
char id=109   x=325     y=243     width=65     height=81     xoffset=0     yoffset=16    xadvance=68     page=0  chnl=0 
char id=108   x=390     y=243     width=65     height=81     xoffset=0     yoffset=16    xadvance=68     page=0  chnl=0 
char id=107   x=0     y=324     width=65     height=81     xoffset=0     yoffset=16    xadvance=68     page=0  chnl=0 
char id=106   x=65     y=324     width=65     height=81     xoffset=0     yoffset=16    xadvance=68     page=0  chnl=0 
char id=105   x=130     y=324     width=65     height=81     xoffset=0     yoffset=16    xadvance=68     page=0  chnl=0 
char id=104   x=195     y=324     width=65     height=81     xoffset=0     yoffset=16    xadvance=68     page=0  chnl=0 
char id=103   x=260     y=324     width=65     height=81     xoffset=0     yoffset=16    xadvance=68     page=0  chnl=0 
char id=102   x=325     y=324     width=65     height=81     xoffset=0     yoffset=16    xadvance=68     page=0  chnl=0 
char id=101   x=390     y=324     width=65     height=81     xoffset=0     yoffset=16    xadvance=68     page=0  chnl=0 
char id=100   x=0     y=405     width=65     height=81     xoffset=0     yoffset=16    xadvance=68     page=0  chnl=0 
char id=99   x=65     y=405     width=65     height=81     xoffset=0     yoffset=16    xadvance=68     page=0  chnl=0 
char id=98   x=130     y=405     width=65     height=81     xoffset=0     yoffset=16    xadvance=68     page=0  chnl=0 
char id=97   x=195     y=405     width=65     height=81     xoffset=0     yoffset=16    xadvance=68     page=0  chnl=0 
char id=44   x=260     y=405     width=33     height=49     xoffset=16     yoffset=64    xadvance=68     page=0  chnl=0 
char id=39   x=293     y=405     width=33     height=49     xoffset=16     yoffset=0    xadvance=68     page=0  chnl=0 
char id=34   x=326     y=405     width=65     height=49     xoffset=0     yoffset=0    xadvance=68     page=0  chnl=0 
char id=46   x=391     y=405     width=33     height=33     xoffset=16     yoffset=64    xadvance=68     page=0  chnl=0 
char id=95   x=424     y=405     width=65     height=17     xoffset=0     yoffset=96    xadvance=68     page=0  chnl=0 
kernings count=-1
